snake_top_tb.vcd
$date
	Mon Mar 16 18:33:24 2026
$end
$version
	Icarus Verilog
$end
$timescale
	1ps
$end
$scope module snake_top_tb $end
$var wire 1 ! LCD_SYNC $end
$var wire 5 " LCD_R [4:0] $end
$var wire 1 # LCD_HYNC $end
$var wire 6 $ LCD_G [5:0] $end
$var wire 1 % LCD_DEN $end
$var wire 1 & LCD_CLK $end
$var wire 5 ' LCD_B [4:0] $end
$var reg 1 ( clk $end
$var reg 1 ) reset_btn $end
$var integer 32 * hsync_count [31:0] $end
$var integer 32 + vsync_count [31:0] $end
$var integer 32 , white_pixels [31:0] $end
$scope module dut $end
$var wire 1 & LCD_CLK $end
$var wire 1 % LCD_DEN $end
$var wire 1 ( clk $end
$var wire 1 - in_snake $end
$var wire 1 . pll_locked $end
$var wire 1 / reset $end
$var wire 1 ) reset_btn $end
$var wire 1 0 sys_reset $end
$var wire 10 1 pixel_y [9:0] $end
$var wire 10 2 pixel_x [9:0] $end
$var wire 1 3 de $end
$var wire 1 4 clk_pixel $end
$var wire 1 ! LCD_SYNC $end
$var wire 5 5 LCD_R [4:0] $end
$var wire 1 # LCD_HYNC $end
$var wire 6 6 LCD_G [5:0] $end
$var wire 5 7 LCD_B [4:0] $end
$var parameter 32 8 BORDER $end
$var parameter 32 9 CELL_SIZE $end
$var parameter 10 : SNAKE_X $end
$var parameter 10 ; SNAKE_Y $end
$scope module u_lcd $end
$var wire 1 0 reset $end
$var wire 10 < pixel_y [9:0] $end
$var wire 10 = pixel_x [9:0] $end
$var wire 1 4 clk_pixel $end
$var parameter 32 > H_ACTIVE $end
$var parameter 32 ? H_BACK_PORCH $end
$var parameter 32 @ H_FRONT_PORCH $end
$var parameter 32 A H_SYNC_PULSE $end
$var parameter 32 B H_TOTAL $end
$var parameter 32 C V_ACTIVE $end
$var parameter 32 D V_BACK_PORCH $end
$var parameter 32 E V_FRONT_PORCH $end
$var parameter 32 F V_SYNC_PULSE $end
$var parameter 32 G V_TOTAL $end
$var reg 1 3 de $end
$var reg 11 H h_count [10:0] $end
$var reg 1 # hsync $end
$var reg 10 I v_count [9:0] $end
$var reg 1 ! vsync $end
$upscope $end
$scope module u_pll $end
$var wire 1 ( clk_27MHz $end
$var wire 1 4 clk_pixel $end
$var wire 1 . pll_locked $end
$var wire 1 / reset $end
$var reg 1 4 clk_out $end
$upscope $end
$upscope $end
$upscope $end
$enddefinitions $end
$comment Show the parameter values. $end
$dumpall
b1000001101 G
b10 F
b1010 E
b100001 D
b111100000 C
b10000100000 B
b10000000 A
b101000 @
b1011000 ?
b1100100000 >
b11100000 ;
b110000000 :
b100000 9
b1 8
$end
#0
$dumpvars
b0 I
b0 H
b0 =
b0 <
b0 7
b0 6
b0 5
04
03
b0 2
b0 1
10
1/
1.
0-
b0 ,
b0 +
b0 *
0)
0(
b0 '
0&
0%
b0 $
1#
b0 "
1!
$end
#15000
1&
14
#18500
1(
#30000
0&
04
#37000
0(
#45000
1&
14
#55500
1(
#60000
0&
04
#74000
0(
#75000
1&
14
#90000
0&
04
#92500
1(
#105000
1&
14
#111000
0(
#120000
0&
04
#129500
1(
#135000
1&
14
#148000
0(
#150000
0&
04
#165000
1&
14
#166500
1(
#180000
0&
04
#185000
0(
#195000
1&
14
#200000
00
0/
1)
#203500
1(
#210000
0&
04
#222000
0(
#225000
b1 2
b1 =
b1 H
1%
13
1&
14
#240000
0&
04
#240500
1(
#255000
b10 2
b10 =
b10 H
1&
14
#259000
0(
#270000
0&
04
#277500
1(
#285000
b11 2
b11 =
b11 H
1&
14
#296000
0(
#300000
0&
04
#314500
1(
#315000
b100 2
b100 =
b100 H
1&
14
#330000
0&
04
#333000
0(
#345000
b101 2
b101 =
b101 H
1&
14
#351500
1(
#360000
0&
04
#370000
0(
#375000
b110 2
b110 =
b110 H
1&
14
#388500
1(
#390000
0&
04
#405000
b111 2
b111 =
b111 H
1&
14
#407000
0(
#420000
0&
04
#425500
1(
#435000
b1000 2
b1000 =
b1000 H
1&
14
#444000
0(
#450000
0&
04
#462500
1(
#465000
b1001 2
b1001 =
b1001 H
1&
14
#480000
0&
04
#481000
0(
#495000
b1010 2
b1010 =
b1010 H
1&
14
#499500
1(
#510000
0&
04
#518000
0(
#525000
b1011 2
b1011 =
b1011 H
1&
14
#536500
1(
#540000
0&
04
#555000
b1100 2
b1100 =
b1100 H
1&
14
0(
#570000
0&
04
#573500
1(
#585000
b1101 2
b1101 =
b1101 H
1&
14
#592000
0(
#600000
0&
04
#610500
1(
#615000
b1110 2
b1110 =
b1110 H
1&
14
#629000
0(
#630000
0&
04
#645000
b1111 2
b1111 =
b1111 H
1&
14
#647500
1(
#660000
0&
04
#666000
0(
#675000
b10000 2
b10000 =
b10000 H
1&
14
#684500
1(
#690000
0&
04
#703000
0(
#705000
b10001 2
b10001 =
b10001 H
1&
14
#720000
0&
04
#721500
1(
#735000
b10010 2
b10010 =
b10010 H
1&
14
#740000
0(
#750000
0&
04
#758500
1(
#765000
b10011 2
b10011 =
b10011 H
1&
14
#777000
0(
#780000
0&
04
#795000
b10100 2
b10100 =
b10100 H
1&
14
#795500
1(
#810000
0&
04
#814000
0(
#825000
b10101 2
b10101 =
b10101 H
1&
14
#832500
1(
#840000
0&
04
#851000
0(
#855000
b10110 2
b10110 =
b10110 H
1&
14
#869500
1(
#870000
0&
04
#885000
b10111 2
b10111 =
b10111 H
1&
14
#888000
0(
#900000
0&
04
#906500
1(
#915000
b11000 2
b11000 =
b11000 H
1&
14
#925000
0(
#930000
0&
04
#943500
1(
#945000
b11001 2
b11001 =
b11001 H
1&
14
#960000
0&
04
#962000
0(
#975000
b11010 2
b11010 =
b11010 H
1&
14
#980500
1(
#990000
0&
04
#999000
0(
#1005000
b11011 2
b11011 =
b11011 H
1&
14
#1017500
1(
#1020000
0&
04
#1035000
b11100 2
b11100 =
b11100 H
1&
14
#1036000
0(
#1050000
0&
04
#1054500
1(
#1065000
b11101 2
b11101 =
b11101 H
1&
14
#1073000
0(
#1080000
0&
04
#1091500
1(
#1095000
b11110 2
b11110 =
b11110 H
1&
14
#1110000
0&
04
0(
#1125000
b11111 2
b11111 =
b11111 H
1&
14
#1128500
1(
#1140000
0&
04
#1147000
0(
#1155000
b100000 2
b100000 =
b100000 H
1&
14
#1165500
1(
#1170000
0&
04
#1184000
0(
#1185000
b100001 2
b100001 =
b100001 H
1&
14
#1200000
0&
04
#1202500
1(
#1215000
b100010 2
b100010 =
b100010 H
1&
14
#1221000
0(
#1230000
0&
04
#1239500
1(
#1245000
b100011 2
b100011 =
b100011 H
1&
14
#1258000
0(
#1260000
0&
04
#1275000
b100100 2
b100100 =
b100100 H
1&
14
#1276500
1(
#1290000
0&
04
#1295000
0(
#1305000
b100101 2
b100101 =
b100101 H
1&
14
#1313500
1(
#1320000
0&
04
#1332000
0(
#1335000
b100110 2
b100110 =
b100110 H
1&
14
#1350000
0&
04
#1350500
1(
#1365000
b100111 2
b100111 =
b100111 H
1&
14
#1369000
0(
#1380000
0&
04
#1387500
1(
#1395000
b101000 2
b101000 =
b101000 H
1&
14
#1406000
0(
#1410000
0&
04
#1424500
1(
#1425000
b101001 2
b101001 =
b101001 H
1&
14
#1440000
0&
04
#1443000
0(
#1455000
b101010 2
b101010 =
b101010 H
1&
14
#1461500
1(
#1470000
0&
04
#1480000
0(
#1485000
b101011 2
b101011 =
b101011 H
1&
14
#1498500
1(
#1500000
0&
04
#1515000
b101100 2
b101100 =
b101100 H
1&
14
#1517000
0(
#1530000
0&
04
#1535500
1(
#1545000
b101101 2
b101101 =
b101101 H
1&
14
#1554000
0(
#1560000
0&
04
#1572500
1(
#1575000
b101110 2
b101110 =
b101110 H
1&
14
#1590000
0&
04
#1591000
0(
#1605000
b101111 2
b101111 =
b101111 H
1&
14
#1609500
1(
#1620000
0&
04
#1628000
0(
#1635000
b110000 2
b110000 =
b110000 H
1&
14
#1646500
1(
#1650000
0&
04
#1665000
b110001 2
b110001 =
b110001 H
1&
14
0(
#1680000
0&
04
#1683500
1(
#1695000
b110010 2
b110010 =
b110010 H
1&
14
#1702000
0(
#1710000
0&
04
#1720500
1(
#1725000
b110011 2
b110011 =
b110011 H
1&
14
#1739000
0(
#1740000
0&
04
#1755000
b110100 2
b110100 =
b110100 H
1&
14
#1757500
1(
#1770000
0&
04
#1776000
0(
#1785000
b110101 2
b110101 =
b110101 H
1&
14
#1794500
1(
#1800000
0&
04
#1813000
0(
#1815000
b110110 2
b110110 =
b110110 H
1&
14
#1830000
0&
04
#1831500
1(
#1845000
b110111 2
b110111 =
b110111 H
1&
14
#1850000
0(
#1860000
0&
04
#1868500
1(
#1875000
b111000 2
b111000 =
b111000 H
1&
14
#1887000
0(
#1890000
0&
04
#1905000
b111001 2
b111001 =
b111001 H
1&
14
#1905500
1(
#1920000
0&
04
#1924000
0(
#1935000
b111010 2
b111010 =
b111010 H
1&
14
#1942500
1(
#1950000
0&
04
#1961000
0(
#1965000
b111011 2
b111011 =
b111011 H
1&
14
#1979500
1(
#1980000
0&
04
#1995000
b111100 2
b111100 =
b111100 H
1&
14
#1998000
0(
#2010000
0&
04
#2016500
1(
#2025000
b111101 2
b111101 =
b111101 H
1&
14
#2035000
0(
#2040000
0&
04
#2053500
1(
#2055000
b111110 2
b111110 =
b111110 H
1&
14
#2070000
0&
04
#2072000
0(
#2085000
b111111 2
b111111 =
b111111 H
1&
14
#2090500
1(
#2100000
0&
04
#2109000
0(
#2115000
b1000000 2
b1000000 =
b1000000 H
1&
14
#2127500
1(
#2130000
0&
04
#2145000
b1000001 2
b1000001 =
b1000001 H
1&
14
#2146000
0(
#2160000
0&
04
#2164500
1(
#2175000
b1000010 2
b1000010 =
b1000010 H
1&
14
#2183000
0(
#2190000
0&
04
#2201500
1(
#2205000
b1000011 2
b1000011 =
b1000011 H
1&
14
#2220000
0&
04
0(
#2235000
b1000100 2
b1000100 =
b1000100 H
1&
14
#2238500
1(
#2250000
0&
04
#2257000
0(
#2265000
b1000101 2
b1000101 =
b1000101 H
1&
14
#2275500
1(
#2280000
0&
04
#2294000
0(
#2295000
b1000110 2
b1000110 =
b1000110 H
1&
14
#2310000
0&
04
#2312500
1(
#2325000
b1000111 2
b1000111 =
b1000111 H
1&
14
#2331000
0(
#2340000
0&
04
#2349500
1(
#2355000
b1001000 2
b1001000 =
b1001000 H
1&
14
#2368000
0(
#2370000
0&
04
#2385000
b1001001 2
b1001001 =
b1001001 H
1&
14
#2386500
1(
#2400000
0&
04
#2405000
0(
#2415000
b1001010 2
b1001010 =
b1001010 H
1&
14
#2423500
1(
#2430000
0&
04
#2442000
0(
#2445000
b1001011 2
b1001011 =
b1001011 H
1&
14
#2460000
0&
04
#2460500
1(
#2475000
b1001100 2
b1001100 =
b1001100 H
1&
14
#2479000
0(
#2490000
0&
04
#2497500
1(
#2505000
b1001101 2
b1001101 =
b1001101 H
1&
14
#2516000
0(
#2520000
0&
04
#2534500
1(
#2535000
b1001110 2
b1001110 =
b1001110 H
1&
14
#2550000
0&
04
#2553000
0(
#2565000
b1001111 2
b1001111 =
b1001111 H
1&
14
#2571500
1(
#2580000
0&
04
#2590000
0(
#2595000
b1010000 2
b1010000 =
b1010000 H
1&
14
#2608500
1(
#2610000
0&
04
#2625000
b1010001 2
b1010001 =
b1010001 H
1&
14
#2627000
0(
#2640000
0&
04
#2645500
1(
#2655000
b1010010 2
b1010010 =
b1010010 H
1&
14
#2664000
0(
#2670000
0&
04
#2682500
1(
#2685000
b1010011 2
b1010011 =
b1010011 H
1&
14
#2700000
0&
04
#2701000
0(
#2715000
b1010100 2
b1010100 =
b1010100 H
1&
14
#2719500
1(
#2730000
0&
04
#2738000
0(
#2745000
b1010101 2
b1010101 =
b1010101 H
1&
14
#2756500
1(
#2760000
0&
04
#2775000
b1010110 2
b1010110 =
b1010110 H
1&
14
0(
#2790000
0&
04
#2793500
1(
#2805000
b1010111 2
b1010111 =
b1010111 H
1&
14
#2812000
0(
#2820000
0&
04
#2830500
1(
#2835000
b1011000 2
b1011000 =
b1011000 H
1&
14
#2849000
0(
#2850000
0&
04
#2865000
b1011001 2
b1011001 =
b1011001 H
1&
14
#2867500
1(
#2880000
0&
04
#2886000
0(
#2895000
b1011010 2
b1011010 =
b1011010 H
1&
14
#2904500
1(
#2910000
0&
04
#2923000
0(
#2925000
b1011011 2
b1011011 =
b1011011 H
1&
14
#2940000
0&
04
#2941500
1(
#2955000
b1011100 2
b1011100 =
b1011100 H
1&
14
#2960000
0(
#2970000
0&
04
#2978500
1(
#2985000
b1011101 2
b1011101 =
b1011101 H
1&
14
#2997000
0(
#3000000
0&
04
#3015000
b1011110 2
b1011110 =
b1011110 H
1&
14
#3015500
1(
#3030000
0&
04
#3034000
0(
#3045000
b1011111 2
b1011111 =
b1011111 H
1&
14
#3052500
1(
#3060000
0&
04
#3071000
0(
#3075000
b1100000 2
b1100000 =
b1100000 H
1&
14
#3089500
1(
#3090000
0&
04
#3105000
b1100001 2
b1100001 =
b1100001 H
1&
14
#3108000
0(
#3120000
0&
04
#3126500
1(
#3135000
b1100010 2
b1100010 =
b1100010 H
1&
14
#3145000
0(
#3150000
0&
04
#3163500
1(
#3165000
b1100011 2
b1100011 =
b1100011 H
1&
14
#3180000
0&
04
#3182000
0(
#3195000
b1100100 2
b1100100 =
b1100100 H
1&
14
#3200500
1(
#3210000
0&
04
#3219000
0(
#3225000
b1100101 2
b1100101 =
b1100101 H
1&
14
#3237500
1(
#3240000
0&
04
#3255000
b1100110 2
b1100110 =
b1100110 H
1&
14
#3256000
0(
#3270000
0&
04
#3274500
1(
#3285000
b1100111 2
b1100111 =
b1100111 H
1&
14
#3293000
0(
#3300000
0&
04
#3311500
1(
#3315000
b1101000 2
b1101000 =
b1101000 H
1&
14
#3330000
0&
04
0(
#3345000
b1101001 2
b1101001 =
b1101001 H
1&
14
#3348500
1(
#3360000
0&
04
#3367000
0(
#3375000
b1101010 2
b1101010 =
b1101010 H
1&
14
#3385500
1(
#3390000
0&
04
#3404000
0(
#3405000
b1101011 2
b1101011 =
b1101011 H
1&
14
#3420000
0&
04
#3422500
1(
#3435000
b1101100 2
b1101100 =
b1101100 H
1&
14
#3441000
0(
#3450000
0&
04
#3459500
1(
#3465000
b1101101 2
b1101101 =
b1101101 H
1&
14
#3478000
0(
#3480000
0&
04
#3495000
b1101110 2
b1101110 =
b1101110 H
1&
14
#3496500
1(
#3510000
0&
04
#3515000
0(
#3525000
b1101111 2
b1101111 =
b1101111 H
1&
14
#3533500
1(
#3540000
0&
04
#3552000
0(
#3555000
b1110000 2
b1110000 =
b1110000 H
1&
14
#3570000
0&
04
#3570500
1(
#3585000
b1110001 2
b1110001 =
b1110001 H
1&
14
#3589000
0(
#3600000
0&
04
#3607500
1(
#3615000
b1110010 2
b1110010 =
b1110010 H
1&
14
#3626000
0(
#3630000
0&
04
#3644500
1(
#3645000
b1110011 2
b1110011 =
b1110011 H
1&
14
#3660000
0&
04
#3663000
0(
#3675000
b1110100 2
b1110100 =
b1110100 H
1&
14
#3681500
1(
#3690000
0&
04
#3700000
0(
#3705000
b1110101 2
b1110101 =
b1110101 H
1&
14
#3718500
1(
#3720000
0&
04
#3735000
b1110110 2
b1110110 =
b1110110 H
1&
14
#3737000
0(
#3750000
0&
04
#3755500
1(
#3765000
b1110111 2
b1110111 =
b1110111 H
1&
14
#3774000
0(
#3780000
0&
04
#3792500
1(
#3795000
b1111000 2
b1111000 =
b1111000 H
1&
14
#3810000
0&
04
#3811000
0(
#3825000
b1111001 2
b1111001 =
b1111001 H
1&
14
#3829500
1(
#3840000
0&
04
#3848000
0(
#3855000
b1111010 2
b1111010 =
b1111010 H
1&
14
#3866500
1(
#3870000
0&
04
#3885000
b1111011 2
b1111011 =
b1111011 H
1&
14
0(
#3900000
0&
04
#3903500
1(
#3915000
b1111100 2
b1111100 =
b1111100 H
1&
14
#3922000
0(
#3930000
0&
04
#3940500
1(
#3945000
b1111101 2
b1111101 =
b1111101 H
1&
14
#3959000
0(
#3960000
0&
04
#3975000
b1111110 2
b1111110 =
b1111110 H
1&
14
#3977500
1(
#3990000
0&
04
#3996000
0(
#4005000
b1111111 2
b1111111 =
b1111111 H
1&
14
#4014500
1(
#4020000
0&
04
#4033000
0(
#4035000
b10000000 2
b10000000 =
b10000000 H
1&
14
#4050000
0&
04
#4051500
1(
#4065000
b10000001 2
b10000001 =
b10000001 H
1&
14
#4070000
0(
#4080000
0&
04
#4088500
1(
#4095000
b10000010 2
b10000010 =
b10000010 H
1&
14
#4107000
0(
#4110000
0&
04
#4125000
b10000011 2
b10000011 =
b10000011 H
1&
14
#4125500
1(
#4140000
0&
04
#4144000
0(
#4155000
b10000100 2
b10000100 =
b10000100 H
1&
14
#4162500
1(
#4170000
0&
04
#4181000
0(
#4185000
b10000101 2
b10000101 =
b10000101 H
1&
14
#4199500
1(
#4200000
0&
04
#4215000
b10000110 2
b10000110 =
b10000110 H
1&
14
#4218000
0(
#4230000
0&
04
#4236500
1(
#4245000
b10000111 2
b10000111 =
b10000111 H
1&
14
#4255000
0(
#4260000
0&
04
#4273500
1(
#4275000
b10001000 2
b10001000 =
b10001000 H
1&
14
#4290000
0&
04
#4292000
0(
#4305000
b10001001 2
b10001001 =
b10001001 H
1&
14
#4310500
1(
#4320000
0&
04
#4329000
0(
#4335000
b10001010 2
b10001010 =
b10001010 H
1&
14
#4347500
1(
#4350000
0&
04
#4365000
b10001011 2
b10001011 =
b10001011 H
1&
14
#4366000
0(
#4380000
0&
04
#4384500
1(
#4395000
b10001100 2
b10001100 =
b10001100 H
1&
14
#4403000
0(
#4410000
0&
04
#4421500
1(
#4425000
b10001101 2
b10001101 =
b10001101 H
1&
14
#4440000
0&
04
0(
#4455000
b10001110 2
b10001110 =
b10001110 H
1&
14
#4458500
1(
#4470000
0&
04
#4477000
0(
#4485000
b10001111 2
b10001111 =
b10001111 H
1&
14
#4495500
1(
#4500000
0&
04
#4514000
0(
#4515000
b10010000 2
b10010000 =
b10010000 H
1&
14
#4530000
0&
04
#4532500
1(
#4545000
b10010001 2
b10010001 =
b10010001 H
1&
14
#4551000
0(
#4560000
0&
04
#4569500
1(
#4575000
b10010010 2
b10010010 =
b10010010 H
1&
14
#4588000
0(
#4590000
0&
04
#4605000
b10010011 2
b10010011 =
b10010011 H
1&
14
#4606500
1(
#4620000
0&
04
#4625000
0(
#4635000
b10010100 2
b10010100 =
b10010100 H
1&
14
#4643500
1(
#4650000
0&
04
#4662000
0(
#4665000
b10010101 2
b10010101 =
b10010101 H
1&
14
#4680000
0&
04
#4680500
1(
#4695000
b10010110 2
b10010110 =
b10010110 H
1&
14
#4699000
0(
#4710000
0&
04
#4717500
1(
#4725000
b10010111 2
b10010111 =
b10010111 H
1&
14
#4736000
0(
#4740000
0&
04
#4754500
1(
#4755000
b10011000 2
b10011000 =
b10011000 H
1&
14
#4770000
0&
04
#4773000
0(
#4785000
b10011001 2
b10011001 =
b10011001 H
1&
14
#4791500
1(
#4800000
0&
04
#4810000
0(
#4815000
b10011010 2
b10011010 =
b10011010 H
1&
14
#4828500
1(
#4830000
0&
04
#4845000
b10011011 2
b10011011 =
b10011011 H
1&
14
#4847000
0(
#4860000
0&
04
#4865500
1(
#4875000
b10011100 2
b10011100 =
b10011100 H
1&
14
#4884000
0(
#4890000
0&
04
#4902500
1(
#4905000
b10011101 2
b10011101 =
b10011101 H
1&
14
#4920000
0&
04
#4921000
0(
#4935000
b10011110 2
b10011110 =
b10011110 H
1&
14
#4939500
1(
#4950000
0&
04
#4958000
0(
#4965000
b10011111 2
b10011111 =
b10011111 H
1&
14
#4976500
1(
#4980000
0&
04
#4995000
b10100000 2
b10100000 =
b10100000 H
1&
14
0(
#5010000
0&
04
#5013500
1(
#5025000
b10100001 2
b10100001 =
b10100001 H
1&
14
#5032000
0(
#5040000
0&
04
#5050500
1(
#5055000
b10100010 2
b10100010 =
b10100010 H
1&
14
#5069000
0(
#5070000
0&
04
#5085000
b10100011 2
b10100011 =
b10100011 H
1&
14
#5087500
1(
#5100000
0&
04
#5106000
0(
#5115000
b10100100 2
b10100100 =
b10100100 H
1&
14
#5124500
1(
#5130000
0&
04
#5143000
0(
#5145000
b10100101 2
b10100101 =
b10100101 H
1&
14
#5160000
0&
04
#5161500
1(
#5175000
b10100110 2
b10100110 =
b10100110 H
1&
14
#5180000
0(
#5190000
0&
04
#5198500
1(
#5205000
b10100111 2
b10100111 =
b10100111 H
1&
14
#5217000
0(
#5220000
0&
04
#5235000
b10101000 2
b10101000 =
b10101000 H
1&
14
#5235500
1(
#5250000
0&
04
#5254000
0(
#5265000
b10101001 2
b10101001 =
b10101001 H
1&
14
#5272500
1(
#5280000
0&
04
#5291000
0(
#5295000
b10101010 2
b10101010 =
b10101010 H
1&
14
#5309500
1(
#5310000
0&
04
#5325000
b10101011 2
b10101011 =
b10101011 H
1&
14
#5328000
0(
#5340000
0&
04
#5346500
1(
#5355000
b10101100 2
b10101100 =
b10101100 H
1&
14
#5365000
0(
#5370000
0&
04
#5383500
1(
#5385000
b10101101 2
b10101101 =
b10101101 H
1&
14
#5400000
0&
04
#5402000
0(
#5415000
b10101110 2
b10101110 =
b10101110 H
1&
14
#5420500
1(
#5430000
0&
04
#5439000
0(
#5445000
b10101111 2
b10101111 =
b10101111 H
1&
14
#5457500
1(
#5460000
0&
04
#5475000
b10110000 2
b10110000 =
b10110000 H
1&
14
#5476000
0(
#5490000
0&
04
#5494500
1(
#5505000
b10110001 2
b10110001 =
b10110001 H
1&
14
#5513000
0(
#5520000
0&
04
#5531500
1(
#5535000
b10110010 2
b10110010 =
b10110010 H
1&
14
#5550000
0&
04
0(
#5565000
b10110011 2
b10110011 =
b10110011 H
1&
14
#5568500
1(
#5580000
0&
04
#5587000
0(
#5595000
b10110100 2
b10110100 =
b10110100 H
1&
14
#5605500
1(
#5610000
0&
04
#5624000
0(
#5625000
b10110101 2
b10110101 =
b10110101 H
1&
14
#5640000
0&
04
#5642500
1(
#5655000
b10110110 2
b10110110 =
b10110110 H
1&
14
#5661000
0(
#5670000
0&
04
#5679500
1(
#5685000
b10110111 2
b10110111 =
b10110111 H
1&
14
#5698000
0(
#5700000
0&
04
#5715000
b10111000 2
b10111000 =
b10111000 H
1&
14
#5716500
1(
#5730000
0&
04
#5735000
0(
#5745000
b10111001 2
b10111001 =
b10111001 H
1&
14
#5753500
1(
#5760000
0&
04
#5772000
0(
#5775000
b10111010 2
b10111010 =
b10111010 H
1&
14
#5790000
0&
04
#5790500
1(
#5805000
b10111011 2
b10111011 =
b10111011 H
1&
14
#5809000
0(
#5820000
0&
04
#5827500
1(
#5835000
b10111100 2
b10111100 =
b10111100 H
1&
14
#5846000
0(
#5850000
0&
04
#5864500
1(
#5865000
b10111101 2
b10111101 =
b10111101 H
1&
14
#5880000
0&
04
#5883000
0(
#5895000
b10111110 2
b10111110 =
b10111110 H
1&
14
#5901500
1(
#5910000
0&
04
#5920000
0(
#5925000
b10111111 2
b10111111 =
b10111111 H
1&
14
#5938500
1(
#5940000
0&
04
#5955000
b11000000 2
b11000000 =
b11000000 H
1&
14
#5957000
0(
#5970000
0&
04
#5975500
1(
#5985000
b11000001 2
b11000001 =
b11000001 H
1&
14
#5994000
0(
#6000000
0&
04
#6012500
1(
#6015000
b11000010 2
b11000010 =
b11000010 H
1&
14
#6030000
0&
04
#6031000
0(
#6045000
b11000011 2
b11000011 =
b11000011 H
1&
14
#6049500
1(
#6060000
0&
04
#6068000
0(
#6075000
b11000100 2
b11000100 =
b11000100 H
1&
14
#6086500
1(
#6090000
0&
04
#6105000
b11000101 2
b11000101 =
b11000101 H
1&
14
0(
#6120000
0&
04
#6123500
1(
#6135000
b11000110 2
b11000110 =
b11000110 H
1&
14
#6142000
0(
#6150000
0&
04
#6160500
1(
#6165000
b11000111 2
b11000111 =
b11000111 H
1&
14
#6179000
0(
#6180000
0&
04
#6195000
b11001000 2
b11001000 =
b11001000 H
1&
14
#6197500
1(
#6210000
0&
04
#6216000
0(
#6225000
b11001001 2
b11001001 =
b11001001 H
1&
14
#6234500
1(
#6240000
0&
04
#6253000
0(
#6255000
b11001010 2
b11001010 =
b11001010 H
1&
14
#6270000
0&
04
#6271500
1(
#6285000
b11001011 2
b11001011 =
b11001011 H
1&
14
#6290000
0(
#6300000
0&
04
#6308500
1(
#6315000
b11001100 2
b11001100 =
b11001100 H
1&
14
#6327000
0(
#6330000
0&
04
#6345000
b11001101 2
b11001101 =
b11001101 H
1&
14
#6345500
1(
#6360000
0&
04
#6364000
0(
#6375000
b11001110 2
b11001110 =
b11001110 H
1&
14
#6382500
1(
#6390000
0&
04
#6401000
0(
#6405000
b11001111 2
b11001111 =
b11001111 H
1&
14
#6419500
1(
#6420000
0&
04
#6435000
b11010000 2
b11010000 =
b11010000 H
1&
14
#6438000
0(
#6450000
0&
04
#6456500
1(
#6465000
b11010001 2
b11010001 =
b11010001 H
1&
14
#6475000
0(
#6480000
0&
04
#6493500
1(
#6495000
b11010010 2
b11010010 =
b11010010 H
1&
14
#6510000
0&
04
#6512000
0(
#6525000
b11010011 2
b11010011 =
b11010011 H
1&
14
#6530500
1(
#6540000
0&
04
#6549000
0(
#6555000
b11010100 2
b11010100 =
b11010100 H
1&
14
#6567500
1(
#6570000
0&
04
#6585000
b11010101 2
b11010101 =
b11010101 H
1&
14
#6586000
0(
#6600000
0&
04
#6604500
1(
#6615000
b11010110 2
b11010110 =
b11010110 H
1&
14
#6623000
0(
#6630000
0&
04
#6641500
1(
#6645000
b11010111 2
b11010111 =
b11010111 H
1&
14
#6660000
0&
04
0(
#6675000
b11011000 2
b11011000 =
b11011000 H
1&
14
#6678500
1(
#6690000
0&
04
#6697000
0(
#6705000
b11011001 2
b11011001 =
b11011001 H
1&
14
#6715500
1(
#6720000
0&
04
#6734000
0(
#6735000
b11011010 2
b11011010 =
b11011010 H
1&
14
#6750000
0&
04
#6752500
1(
#6765000
b11011011 2
b11011011 =
b11011011 H
1&
14
#6771000
0(
#6780000
0&
04
#6789500
1(
#6795000
b11011100 2
b11011100 =
b11011100 H
1&
14
#6808000
0(
#6810000
0&
04
#6825000
b11011101 2
b11011101 =
b11011101 H
1&
14
#6826500
1(
#6840000
0&
04
#6845000
0(
#6855000
b11011110 2
b11011110 =
b11011110 H
1&
14
#6863500
1(
#6870000
0&
04
#6882000
0(
#6885000
b11011111 2
b11011111 =
b11011111 H
1&
14
#6900000
0&
04
#6900500
1(
#6915000
b11100000 2
b11100000 =
b11100000 H
1&
14
#6919000
0(
#6930000
0&
04
#6937500
1(
#6945000
b11100001 2
b11100001 =
b11100001 H
1&
14
#6956000
0(
#6960000
0&
04
#6974500
1(
#6975000
b11100010 2
b11100010 =
b11100010 H
1&
14
#6990000
0&
04
#6993000
0(
#7005000
b11100011 2
b11100011 =
b11100011 H
1&
14
#7011500
1(
#7020000
0&
04
#7030000
0(
#7035000
b11100100 2
b11100100 =
b11100100 H
1&
14
#7048500
1(
#7050000
0&
04
#7065000
b11100101 2
b11100101 =
b11100101 H
1&
14
#7067000
0(
#7080000
0&
04
#7085500
1(
#7095000
b11100110 2
b11100110 =
b11100110 H
1&
14
#7104000
0(
#7110000
0&
04
#7122500
1(
#7125000
b11100111 2
b11100111 =
b11100111 H
1&
14
#7140000
0&
04
#7141000
0(
#7155000
b11101000 2
b11101000 =
b11101000 H
1&
14
#7159500
1(
#7170000
0&
04
#7178000
0(
#7185000
b11101001 2
b11101001 =
b11101001 H
1&
14
#7196500
1(
#7200000
0&
04
#7215000
b11101010 2
b11101010 =
b11101010 H
1&
14
0(
#7230000
0&
04
#7233500
1(
#7245000
b11101011 2
b11101011 =
b11101011 H
1&
14
#7252000
0(
#7260000
0&
04
#7270500
1(
#7275000
b11101100 2
b11101100 =
b11101100 H
1&
14
#7289000
0(
#7290000
0&
04
#7305000
b11101101 2
b11101101 =
b11101101 H
1&
14
#7307500
1(
#7320000
0&
04
#7326000
0(
#7335000
b11101110 2
b11101110 =
b11101110 H
1&
14
#7344500
1(
#7350000
0&
04
#7363000
0(
#7365000
b11101111 2
b11101111 =
b11101111 H
1&
14
#7380000
0&
04
#7381500
1(
#7395000
b11110000 2
b11110000 =
b11110000 H
1&
14
#7400000
0(
#7410000
0&
04
#7418500
1(
#7425000
b11110001 2
b11110001 =
b11110001 H
1&
14
#7437000
0(
#7440000
0&
04
#7455000
b11110010 2
b11110010 =
b11110010 H
1&
14
#7455500
1(
#7470000
0&
04
#7474000
0(
#7485000
b11110011 2
b11110011 =
b11110011 H
1&
14
#7492500
1(
#7500000
0&
04
#7511000
0(
#7515000
b11110100 2
b11110100 =
b11110100 H
1&
14
#7529500
1(
#7530000
0&
04
#7545000
b11110101 2
b11110101 =
b11110101 H
1&
14
#7548000
0(
#7560000
0&
04
#7566500
1(
#7575000
b11110110 2
b11110110 =
b11110110 H
1&
14
#7585000
0(
#7590000
0&
04
#7603500
1(
#7605000
b11110111 2
b11110111 =
b11110111 H
1&
14
#7620000
0&
04
#7622000
0(
#7635000
b11111000 2
b11111000 =
b11111000 H
1&
14
#7640500
1(
#7650000
0&
04
#7659000
0(
#7665000
b11111001 2
b11111001 =
b11111001 H
1&
14
#7677500
1(
#7680000
0&
04
#7695000
b11111010 2
b11111010 =
b11111010 H
1&
14
#7696000
0(
#7710000
0&
04
#7714500
1(
#7725000
b11111011 2
b11111011 =
b11111011 H
1&
14
#7733000
0(
#7740000
0&
04
#7751500
1(
#7755000
b11111100 2
b11111100 =
b11111100 H
1&
14
#7770000
0&
04
0(
#7785000
b11111101 2
b11111101 =
b11111101 H
1&
14
#7788500
1(
#7800000
0&
04
#7807000
0(
#7815000
b11111110 2
b11111110 =
b11111110 H
1&
14
